{
  "draft": [
    {
      "id": "1",
      "DraftNumber": "1234567890",
      "Supplier": "Ferrache",
      "PaymentDate": "2019-06-06",
      "Value": 450,
      "StoredUpValue": 0,
      "Notes": "Neste momento preciso angariar mais de 50€ só para poder pagar este cheque, no entanto estimo que antes do final desta semana, ou no máximo no final da próxima eu possa ter o valor total para este cheque!",
      "Photo": "draft_2.jpg",
      "isPaid": true,
      "isDateClose": false,
      "isOutdatedAndNotPaid": false,
      "isCanceled": false
    },
    {
      "id": "2",
      "DraftNumber": "98765432100",
      "Supplier": null,
      "PaymentDate": "2019-06-16",
      "Value": 200,
      "StoredUpValue": 0,
      "Notes": null,
      "Photo": null,
      "isPaid": false,
      "isDateClose": false,
      "isOutdatedAndNotPaid": true,
      "isCanceled": false
    },
    {
      "id": "3",
      "DraftNumber": "2587419630",
      "Supplier": null,
      "PaymentDate": "2019-07-09",
      "Value": 200,
      "StoredUpValue": 0,
      "Notes": null,
      "Photo": null,
      "isPaid": false,
      "isDateClose": false,
      "isOutdatedAndNotPaid": false,
      "isCanceled": false
    },
    {
      "id": "4",
      "DraftNumber": "1597534560",
      "Supplier": null,
      "PaymentDate": "2019-07-16",
      "Value": 200,
      "StoredUpValue": 0,
      "Notes": null,
      "Photo": null,
      "isPaid": false,
      "isDateClose": false,
      "isOutdatedAndNotPaid": true,
      "isCanceled": true
    },
    {
      "id": "5",
      "DraftNumber": "35612578400",
      "Supplier": null,
      "PaymentDate": "2019-11-16",
      "Value": 200,
      "StoredUpValue": 0,
      "Notes": null,
      "Photo": null,
      "isPaid": false,
      "isDateClose": false,
      "isOutdatedAndNotPaid": false,
      "isCanceled": false
    },
    {
      "id": "6",
      "DraftNumber": "98775986410",
      "Supplier": null,
      "PaymentDate": "2019-12-16",
      "Value": 1200,
      "StoredUpValue": 0,
      "Notes": null,
      "Photo": null,
      "isPaid": false,
      "isDateClose": false,
      "isOutdatedAndNotPaid": false,
      "isCanceled": false
    },
    {
      "id": "8",
      "DraftNumber": "5678234500",
      "Supplier": null,
      "PaymentDate": "2019-12-23",
      "Value": 592.28,
      "StoredUpValue": 0,
      "Notes": null,
      "Photo": null,
      "isPaid": false,
      "isDateClose": false,
      "isOutdatedAndNotPaid": false,
      "isCanceled": true
    },
    {
      "id": "10",
      "DraftNumber": "1278327800",
      "Supplier": null,
      "PaymentDate": "2019-12-31",
      "Value": 109.6,
      "StoredUpValue": 0,
      "Notes": null,
      "Photo": null,
      "isPaid": false,
      "isDateClose": true,
      "isOutdatedAndNotPaid": false,
      "isCanceled": false
    },
    {
      "id": "11",
      "DraftNumber": "35612578400444444",
      "Supplier": "Ferrache",
      "PaymentDate": "2019-09-11",
      "Value": 67,
      "StoredUpValue": 0,
      "Photo": "logoDi.png",
      "Notes": "x",
      "isPaid": false,
      "isCanceled": false,
      "isDateClose": false,
      "isOutdatedAndNotPaid": false
    },
    {
      "id": "12",
      "DraftNumber": "3561257840044444458",
      "Supplier": "TCO",
      "PaymentDate": "2020-03-16",
      "Value": 455.26,
      "StoredUpValue": 0,
      "Photo": null,
      "Notes": "test next year",
      "isPaid": false,
      "isCanceled": false,
      "isDateClose": false,
      "isOutdatedAndNotPaid": false
    },
    {
      "id": "25",
      "DraftNumber": "1234567890",
      "Supplier": "TESTE IMG",
      "PaymentDate": "2019-07-31",
      "Value": 5,
      "StoredUpValue": 0,
      "Photo": "C:\\fakepath\\10941426_1107473429279062_8608218720095956203_n.jpg",
      "Notes": null,
      "isPaid": false,
      "isCanceled": false,
      "isDateClose": false,
      "isOutdatedAndNotPaid": false
    }
  ],
  "supplier": [
    {
      "id": 1,
      "Name": "Ferrache"
    },
    {
      "id": 2,
      "Name": "TCO"
    }
  ]
}
